         run       event       nTopo   nIdTracks  nTauTracks       nTaus      nMuons       nElec   nTrueElec   nFakeElec       nPhot   nTruePhot   nFakePhot
      410000    20390001          89          73          29           6           0           8           4           4          13           7           6
      410000    20390002          90         111          36           7           1           6           1           5           8           4           4
      410000    20390003         121         124          78           6           0          21           2          19          11           8           3
      410000    20390004          63          77          27           7           0           6           1           5           5           3           2
      410000    20390005          63          74          27           4           1          10           3           7           7           6           1
      410000    20390006          73          76          28           4           0           3           0           3           9           7           2
      410000    20390007          87          75          35           7           0           7           1           6           4           1           3
      410000    20390008         107         113          65           8           1          13           3          10          15          13           2
      410000    20390009          39          34          24           5           3           6           2           4           4           2           2
      410000    20390010          83          82          57           8           2          11           0          11           6           1           5
      410000    20390011          55          58          36           7           0          14           3          11           4           3           1
      410000    20390012         130         117          52           9           2          11           1          10           8           7           1
      410000    20390013          88          56          33           8           0           7           1           6           9           6           3
      410000    20390014          67          58          24           7           2           9           1           8           6           4           2
      410000    20390015         112         131          66           7           1          16           3          13          14           9           5
      410000    20390016          79          55          40           7           1          10           0          10          13           9           4
      410000    20390017          64          85          43           6           2          13           1          12           6           4           2
      410000    20390018          64          76          38           6           0          10           2           8           3           3           0
      410000    20390019          91          94          56           8           1          17           3          14          16          11           5
      410000    20390021          85          98          43           5           0          16           2          14          11           9           2
      410000    20390022          56          58          34           6           0          13           3          10           5           2           3
      410000    20390023          74          69          34           8           1          12           1          11           8           3           5
      410000    20390024          99          88          38           6           1          11           4           7           8           5           3
      410000    20390025          67          77          38           5           2           9           1           8           2           2           0
      410000    20390026          44          38          27           5           0           8           2           6           6           4           2
